^C:\USERS\JOSHVAL\DESKTOP\URL\PROGRAAVPRACTICA\PROGRAAVANZADA2019\TAREA2_JOSHUA_VALEY_1014416\DEBUG\.NETFRAMEWORK,VERSION=V4.5.2.ASSEMBLYATTRIBUTES.OBJ|C:\USERS\JOSHVAL\DESKTOP\URL\PROGRAAVPRACTICA\PROGRAAVANZADA2019\TAREA2_JOSHUA_VALEY_1014416\DEBUG\MYFORM.OBJ
C:\USERS\JOSHVAL\DESKTOP\URL\PROGRAAVPRACTICA\PROGRAAVANZADA2019\TAREA2_JOSHUA_VALEY_1014416\DEBUG\TAREA2_JOSHUA_VALEY_1014416.EXE
C:\USERS\JOSHVAL\DESKTOP\URL\PROGRAAVPRACTICA\PROGRAAVANZADA2019\TAREA2_JOSHUA_VALEY_1014416\DEBUG\TAREA2_JOSHUA_VALEY_1014416.PDB
