^C:\Users\JoshVal\Desktop\URL\PrograAvPractica\PrograAvanzada2019\Tarea2_Joshua_Valey_1014416\Tarea2_Joshua_Valey_1014416.vcxproj
C:\Users\JoshVal\Desktop\URL\PrograAvPractica\PrograAvanzada2019\Tarea2_Joshua_Valey_1014416\Debug\Tarea2JoshuaValey1014416.MyForm.resources
^C:\Users\JoshVal\Desktop\URL\PrograAvPractica\PrograAvanzada2019\Tarea2_Joshua_Valey_1014416\Tarea2_Joshua_Valey_1014416.vcxproj
C:\Users\JoshVal\Desktop\URL\PrograAvPractica\PrograAvanzada2019\Tarea2_Joshua_Valey_1014416\Debug\Tarea2JoshuaValey1014416.MyForm.resources
^C:\Users\JoshVal\Desktop\URL\PrograAvPractica\PrograAvanzada2019\Tarea2_Joshua_Valey_1014416\Tarea2_Joshua_Valey_1014416.vcxproj
C:\Users\JoshVal\Desktop\URL\PrograAvPractica\PrograAvanzada2019\Tarea2_Joshua_Valey_1014416\Debug\Tarea2JoshuaValey1014416.MyForm.resources
^C:\Users\JoshVal\Desktop\URL\PrograAvPractica\PrograAvanzada2019\Tarea2_Joshua_Valey_1014416\Tarea2_Joshua_Valey_1014416.vcxproj
C:\Users\JoshVal\Desktop\URL\PrograAvPractica\PrograAvanzada2019\Tarea2_Joshua_Valey_1014416\Debug\Tarea2JoshuaValey1014416.MyForm.resources
^C:\Users\JoshVal\Desktop\URL\PrograAvPractica\PrograAvanzada2019\Tarea2_Joshua_Valey_1014416\Tarea2_Joshua_Valey_1014416.vcxproj
C:\Users\JoshVal\Desktop\URL\PrograAvPractica\PrograAvanzada2019\Tarea2_Joshua_Valey_1014416\Debug\Tarea2JoshuaValey1014416.MyForm.resources
^C:\Users\JoshVal\Desktop\URL\PrograAvPractica\PrograAvanzada2019\Tarea2_Joshua_Valey_1014416\Tarea2_Joshua_Valey_1014416.vcxproj
C:\Users\JoshVal\Desktop\URL\PrograAvPractica\PrograAvanzada2019\Tarea2_Joshua_Valey_1014416\Debug\Tarea2JoshuaValey1014416.MyForm.resources
^C:\Users\JoshVal\Desktop\URL\PrograAvPractica\PrograAvanzada2019\Tarea2_Joshua_Valey_1014416\Tarea2_Joshua_Valey_1014416.vcxproj
C:\Users\JoshVal\Desktop\URL\PrograAvPractica\PrograAvanzada2019\Tarea2_Joshua_Valey_1014416\Debug\Tarea2JoshuaValey1014416.MyForm.resources
^C:\Users\JoshVal\Desktop\URL\PrograAvPractica\PrograAvanzada2019\Tarea2_Joshua_Valey_1014416\Tarea2_Joshua_Valey_1014416.vcxproj
C:\Users\JoshVal\Desktop\URL\PrograAvPractica\PrograAvanzada2019\Tarea2_Joshua_Valey_1014416\Debug\Tarea2JoshuaValey1014416.MyForm.resources
^C:\Users\JoshVal\Desktop\URL\PrograAvPractica\PrograAvanzada2019\Tarea2_Joshua_Valey_1014416\Tarea2_Joshua_Valey_1014416.vcxproj
C:\Users\JoshVal\Desktop\URL\PrograAvPractica\PrograAvanzada2019\Tarea2_Joshua_Valey_1014416\Debug\Tarea2JoshuaValey1014416.MyForm.resources
^C:\Users\JoshVal\Desktop\URL\PrograAvPractica\PrograAvanzada2019\Tarea2_Joshua_Valey_1014416\Tarea2_Joshua_Valey_1014416.vcxproj
C:\Users\JoshVal\Desktop\URL\PrograAvPractica\PrograAvanzada2019\Tarea2_Joshua_Valey_1014416\Debug\Tarea2JoshuaValey1014416.MyForm.resources
^C:\Users\JoshVal\Desktop\URL\PrograAvPractica\PrograAvanzada2019\Tarea2_Joshua_Valey_1014416\Tarea2_Joshua_Valey_1014416.vcxproj
C:\Users\JoshVal\Desktop\URL\PrograAvPractica\PrograAvanzada2019\Tarea2_Joshua_Valey_1014416\Debug\Tarea2JoshuaValey1014416.MyForm.resources
